1. url: http://localhost:3001/api/login
2. method: post

3. ค่า input ที่ต้องการ
  {
     email:''
     password:'' 
  }
4. ค่าresponse

4.1  status 400 bad request
4.1.1  {"status":"wrong email"}  //ใส่ email ผิด
4.1.2  {"status":"wrong password"} //ใส่ password ผิด

4.2 status 200 ok
{"status":"logged in","id":"48",
"email":"1@1","firstname":"sam","lastname":"nob","birthday":"11/11/11","gender":"m","
username":"sam.nob","profile_picture_url":"http://localhost:3001/user_profile/31c059bf-4e7c-437b-a402-35099135140f301020191341235111.jpg",
"bio":"ข้อความแนะนำตัวนะครับ"} 
// login สำเร็จ 


