url : http://localhost:3001/api/post/create_feed_post
method : post
input : {
             picure: 'abc.jpg'
             caption: 'แคปชั่น',
             privacy: 'public' // ให้ใส่ public, friend, only me
             
        } // id(token)
output:
*status 404
- {session:'not found session'}

 status 400 bad request : 
              {"status":"please input caption or picture"}  // ไม่ได้ใส่ข้อมูล
               {status: 'wrong privacy, please in put friend, public, only me'}
status 200 ok : {"status":"post picture complete"} // กรณีใส่รูป แต่ไม่ใส่ caption
              : {"status":"post caption complete"}// ใส่caption แต่ไม่ใส่รูป
              : {"status":"post caption and picture complete"} //ใส่ทั้งรูป และ caption 